{
  "name": "pony",
  "url": "https://github.com/AxGord/Pony",
  "license": "BSD",
  "tags": ["cross", "utils", "pixi", "pixijs", "unity3d", "unity", "flash", "nodejs", "cs", "php", "openfl"],
  "description": "Haxe open-cross-library",
  "version": "0.4.0",
  "releasenote": "New event system. Pixijs support.",
  "contributors": ["AxGord"],
  "dependencies": {
  }
}